Nermin,Hrusic,2705994180054,05.05.2016,nermin,ixfifxifxi,1,The Choice(2016),#
Emina,Hrustic,4556231245652,15.04.2015,emina,jrnsfjrnsf,0,#
Sabira,Hrustic,2145653212211,25.05.2016,sabira,xfgnwfxfgnwf,0,#
Novalija,Hrustic,2154562312542,12.05.2016,novalija,st{fqnof678,2,Battle For England(2016),Inception(2010),The Choice(2016),Inception(2010),Inception(2010),Aberden(2016),Rocky Balboa(2006),The Godfather(2016),#
Novi,Korisnim,1232564578895,18.06.2016,noviKorisnik,st{nptwnxsnp678,0,#
Jakub,Secic,2809995190002,18.06.2016,token545,rtynpf678,0,Inception(2010),Rocky Balboa(2006),The Godfather(1972),#
